<?xml version="1.0"?>
<svg version="1.1" xmlns="http://www.w3.org/2000/svg" xmlns:xlink="http://www.w3.org/1999/xlink" width="185.7" height="185.7">
    <desc iVinci="yes" version="4.6" gridStep="20" showGrid="no" snapToGrid="no" codePlatform="0"/>
    <g id="Layer1" name="Layer 1" opacity="1">
        <g id="Shape1">
            <desc shapeID="1" type="0" basicInfo-basicType="0" basicInfo-roundedRectRadius="12" basicInfo-polygonSides="6" basicInfo-starPoints="5" bounding="rect(-90.1,-90.15,180.2,180.3)" text="" font-familyName="" font-pixelSize="20" font-bold="0" font-underline="0" font-alignment="1" strokeStyle="0" markerStart="0" markerEnd="0" shadowEnabled="0" shadowOffsetX="0" shadowOffsetY="2" shadowBlur="4" shadowOpacity="160" blurEnabled="0" blurRadius="4" transform="matrix(1,0,0,1,92.1,92.15)" pers-center="0,0" pers-size="0,0" pers-start="0,0" pers-end="0,0" locked="0" mesh="" flag=""/>
            <path id="shapePath1" d="M145.3,80.3 C147.8,78.1 150.4,76.2 153.5,75.4 C157.7,74.3 162.6,74.8 166.6,76.4 C166.6,76.4 158.3,63.8 138.3,65.7 C160.4,41.3 148.7,21.1 148.7,21.1 C148.3,26.2 146.2,31.8 142.8,35.7 C137.6,41.7 128.5,42.8 121.4,46.2 C121.6,42.9 122.1,39.7 123.7,36.9 C125.9,33.2 129.7,30 133.7,28.4 C133.7,28.4 118.9,25.3 106.2,40.9 C104.5,7.89999 81.9,1.99999 81.9,1.99999 C85.3,5.89999 87.7,11.3 88,16.4 C88.5,24.3 83,31.5 80.3,39 C78.1,36.5 76.2,33.9 75.4,30.8 C74.3,26.6 74.8,21.7 76.4,17.7 C76.4,17.7 63.8,26 65.7,46 C41.3,23.9 21.1,35.7 21.1,35.7 C26.2,36.1 31.8,38.2 35.7,41.6 C41.7,46.8 42.8,55.9 46.2,63 C42.9,62.8 39.7,62.3 36.9,60.7 C33.2,58.5 30,54.7 28.4,50.7 C28.4,50.7 25.3,65.5 40.9,78.2 C8.00001,79.9 2.00001,102.4 2.00001,102.4 C5.90001,99 11.3,96.6 16.4,96.3 C24.3,95.8 31.5,101.3 39,104 C36.5,106.2 33.9,108.1 30.8,108.9 C26.6,110 21.7,109.5 17.7,107.9 C17.7,107.9 26,120.5 46,118.6 C23.9,143 35.6,163.2 35.6,163.2 C36,158.1 38.1,152.5 41.5,148.6 C46.7,142.6 55.8,141.5 62.9,138.1 C62.7,141.4 62.2,144.6 60.6,147.4 C58.4,151.1 54.6,154.3 50.6,155.9 C50.6,155.9 65.4,159 78.1,143.4 C79.7,176.3 102.3,182.3 102.3,182.3 C98.9,178.4 96.5,173 96.2,167.9 C95.7,160 101.2,152.8 103.9,145.3 C106.1,147.8 108,150.4 108.8,153.5 C109.9,157.7 109.4,162.6 107.8,166.6 C107.8,166.6 120.4,158.3 118.5,138.3 C142.9,160.4 163.1,148.7 163.1,148.7 C158,148.3 152.4,146.2 148.5,142.8 C142.5,137.6 141.4,128.5 138,121.4 C141.3,121.6 144.5,122.1 147.3,123.7 C151,125.9 154.2,129.7 155.8,133.7 C155.8,133.7 158.9,118.9 143.3,106.2 C176.2,104.6 182.2,82 182.2,82 C178.3,85.4 172.9,87.8 167.8,88.1 C160,88.5 152.8,82.9 145.3,80.3 M134.7,92.9 C134.5,103.9 130.2,114.1 122.5,121.9 C122.2,122.2 122,122.4 121.7,122.7 C121.7,122.7 121.6,122.8 121.6,122.8 C113.8,130.2 103.6,134.3 92.9,134.3 L92.8,134.3 C92.2,134.3 91.6,134.3 91,134.3 C86,134.1 81.1,133 76.5,131.1 C76.2,131 76,130.9 75.7,130.8 C70.9,128.7 66.6,125.7 62.8,121.9 C62.6,121.7 62.4,121.5 62.3,121.3 C62.3,121.3 62.2,121.2 62.2,121.2 C54.9,113.5 50.9,103.3 50.8,92.7 L50.8,92.6 C50.8,81.9 54.8,71.7 62.1,63.9 C62.3,63.6 62.6,63.4 62.8,63.1 C63.2,62.7 63.6,62.3 63.9,62 C71.3,55 81.1,50.9 91.3,50.5 C91.8,50.5 92.2,50.5 92.7,50.5 C92.9,50.5 93.1,50.5 93.3,50.5 C98.7,50.6 104,51.7 109,53.8 C109.3,53.9 109.5,54 109.8,54.1 C114.5,56.2 118.7,59 122.3,62.7 C122.6,63 122.9,63.3 123.1,63.6 L123.2,63.7 C130.7,71.6 134.8,82 134.7,93 L134.7,92.9 Z" style="stroke:none;fill-rule:nonzero;fill:#ef9821;fill-opacity:1;"/>
        </g>
        <g id="Shape2">
            <desc shapeID="2" type="0" basicInfo-basicType="0" basicInfo-roundedRectRadius="12" basicInfo-polygonSides="6" basicInfo-starPoints="5" bounding="rect(-36.8,-36.75,73.6,73.5)" text="" font-familyName="" font-pixelSize="20" font-bold="0" font-underline="0" font-alignment="1" strokeStyle="0" markerStart="0" markerEnd="0" shadowEnabled="0" shadowOffsetX="0" shadowOffsetY="2" shadowBlur="4" shadowOpacity="160" blurEnabled="0" blurRadius="4" transform="matrix(1,0,0,1,92.8,92.15)" pers-center="0,0" pers-size="0,0" pers-start="0,0" pers-end="0,0" locked="0" mesh="" flag=""/>
            <path id="shapePath2" d="M119.4,66.9 C119.2,66.6 118.9,66.4 118.7,66.1 C115.4,62.9 111.7,60.4 107.8,58.6 C107.6,58.5 107.3,58.4 107.1,58.3 C102.7,56.5 98,55.5 93.4,55.4 C93.2,55.4 93,55.4 92.9,55.4 C92.5,55.4 92.1,55.4 91.7,55.4 C83.1,55.7 74.5,59 67.7,65.4 C67.4,65.7 67.1,66 66.7,66.4 C66.5,66.6 66.3,66.8 66.1,67.1 C59.3,74.3 56,83.3 56,92.4 C56,92.4 56,92.5 56,92.5 C56,101.5 59.3,110.4 65.9,117.4 C65.9,117.4 66,117.5 66,117.5 C66.2,117.7 66.3,117.8 66.5,118 C69.8,121.4 73.7,124 77.8,125.8 C78,125.9 78.3,126 78.5,126.1 C82.5,127.8 86.8,128.7 91.2,128.9 C91.7,128.9 92.2,128.9 92.8,128.9 C92.8,128.9 92.9,128.9 92.9,128.9 C101.9,128.9 111,125.5 118.1,118.8 C118.1,118.8 118.1,118.8 118.2,118.7 C118.4,118.5 118.7,118.2 118.9,118 C125.9,111 129.4,101.9 129.6,92.7 C129.6,92.6 129.6,92.5 129.6,92.4 C129.6,83.4 126.2,74.2 119.4,66.9 C119.4,67 119.4,67 119.4,66.9 Z" style="stroke:none;fill-rule:nonzero;fill:#ef9821;fill-opacity:1;"/>
        </g>
    </g>
</svg>
